// Jest Snapshot v1, https://goo.gl/fbAQLP

exports[`TodoComponent TodoComponent Renders for Add 1`] = `
Object {
  "asFragment": [Function],
  "baseElement": <body>
    <div>
      <div>
        <h1
          data-testid="todoheader"
        >
          Todo
        </h1>
        <div
          class="container"
        >
          <form
            action="#"
          >
            <fieldset
              class="form-group"
            >
                
              <label>
                Description
              </label>
              <input
                class="form-control"
                data-testid="descriptionInput"
                name="description"
                type="text"
                value=""
              />
              <small
                class="form-text text-muted"
                id="descriptionHelp"
              >
                Must be greater than 4 characters.
              </small>
            </fieldset>
            <fieldset
              class="form-group"
            >
               
              <label>
                Target Date
              </label>
              <input
                class="form-control"
                data-testid="targetDateInput"
                name="targetDate"
                type="date"
                value="2021-03-31"
              />
            </fieldset>
            <button
              class="btn btn-primary"
              data-testid="submit"
              name="submit"
              type="submit"
            >
              Submit
            </button>
          </form>
        </div>
      </div>
    </div>
  </body>,
  "container": <div>
    <div>
      <h1
        data-testid="todoheader"
      >
        Todo
      </h1>
      <div
        class="container"
      >
        <form
          action="#"
        >
          <fieldset
            class="form-group"
          >
              
            <label>
              Description
            </label>
            <input
              class="form-control"
              data-testid="descriptionInput"
              name="description"
              type="text"
              value=""
            />
            <small
              class="form-text text-muted"
              id="descriptionHelp"
            >
              Must be greater than 4 characters.
            </small>
          </fieldset>
          <fieldset
            class="form-group"
          >
             
            <label>
              Target Date
            </label>
            <input
              class="form-control"
              data-testid="targetDateInput"
              name="targetDate"
              type="date"
              value="2021-03-31"
            />
          </fieldset>
          <button
            class="btn btn-primary"
            data-testid="submit"
            name="submit"
            type="submit"
          >
            Submit
          </button>
        </form>
      </div>
    </div>
  </div>,
  "debug": [Function],
  "findAllByAltText": [Function],
  "findAllByDisplayValue": [Function],
  "findAllByLabelText": [Function],
  "findAllByPlaceholderText": [Function],
  "findAllByRole": [Function],
  "findAllByTestId": [Function],
  "findAllByText": [Function],
  "findAllByTitle": [Function],
  "findByAltText": [Function],
  "findByDisplayValue": [Function],
  "findByLabelText": [Function],
  "findByPlaceholderText": [Function],
  "findByRole": [Function],
  "findByTestId": [Function],
  "findByText": [Function],
  "findByTitle": [Function],
  "getAllByAltText": [Function],
  "getAllByDisplayValue": [Function],
  "getAllByLabelText": [Function],
  "getAllByPlaceholderText": [Function],
  "getAllByRole": [Function],
  "getAllByTestId": [Function],
  "getAllByText": [Function],
  "getAllByTitle": [Function],
  "getByAltText": [Function],
  "getByDisplayValue": [Function],
  "getByLabelText": [Function],
  "getByPlaceholderText": [Function],
  "getByRole": [Function],
  "getByTestId": [Function],
  "getByText": [Function],
  "getByTitle": [Function],
  "queryAllByAltText": [Function],
  "queryAllByDisplayValue": [Function],
  "queryAllByLabelText": [Function],
  "queryAllByPlaceholderText": [Function],
  "queryAllByRole": [Function],
  "queryAllByTestId": [Function],
  "queryAllByText": [Function],
  "queryAllByTitle": [Function],
  "queryByAltText": [Function],
  "queryByDisplayValue": [Function],
  "queryByLabelText": [Function],
  "queryByPlaceholderText": [Function],
  "queryByRole": [Function],
  "queryByTestId": [Function],
  "queryByText": [Function],
  "queryByTitle": [Function],
  "rerender": [Function],
  "unmount": [Function],
}
`;

exports[`TodoComponent TodoComponent Renders for Update 1`] = `
Object {
  "asFragment": [Function],
  "baseElement": <body>
    <div>
      <div>
        <h1
          data-testid="todoheader"
        >
          Todo
        </h1>
        <div
          class="container"
        >
          <form
            action="#"
          >
            <fieldset
              class="form-group"
            >
                
              <label>
                Description
              </label>
              <input
                class="form-control"
                data-testid="descriptionInput"
                name="description"
                type="text"
                value=""
              />
              <small
                class="form-text text-muted"
                id="descriptionHelp"
              >
                Must be greater than 4 characters.
              </small>
            </fieldset>
            <fieldset
              class="form-group"
            >
               
              <label>
                Target Date
              </label>
              <input
                class="form-control"
                data-testid="targetDateInput"
                name="targetDate"
                type="date"
                value="2021-03-31"
              />
            </fieldset>
            <button
              class="btn btn-primary"
              data-testid="submit"
              name="submit"
              type="submit"
            >
              Submit
            </button>
          </form>
        </div>
      </div>
    </div>
  </body>,
  "container": <div>
    <div>
      <h1
        data-testid="todoheader"
      >
        Todo
      </h1>
      <div
        class="container"
      >
        <form
          action="#"
        >
          <fieldset
            class="form-group"
          >
              
            <label>
              Description
            </label>
            <input
              class="form-control"
              data-testid="descriptionInput"
              name="description"
              type="text"
              value=""
            />
            <small
              class="form-text text-muted"
              id="descriptionHelp"
            >
              Must be greater than 4 characters.
            </small>
          </fieldset>
          <fieldset
            class="form-group"
          >
             
            <label>
              Target Date
            </label>
            <input
              class="form-control"
              data-testid="targetDateInput"
              name="targetDate"
              type="date"
              value="2021-03-31"
            />
          </fieldset>
          <button
            class="btn btn-primary"
            data-testid="submit"
            name="submit"
            type="submit"
          >
            Submit
          </button>
        </form>
      </div>
    </div>
  </div>,
  "debug": [Function],
  "findAllByAltText": [Function],
  "findAllByDisplayValue": [Function],
  "findAllByLabelText": [Function],
  "findAllByPlaceholderText": [Function],
  "findAllByRole": [Function],
  "findAllByTestId": [Function],
  "findAllByText": [Function],
  "findAllByTitle": [Function],
  "findByAltText": [Function],
  "findByDisplayValue": [Function],
  "findByLabelText": [Function],
  "findByPlaceholderText": [Function],
  "findByRole": [Function],
  "findByTestId": [Function],
  "findByText": [Function],
  "findByTitle": [Function],
  "getAllByAltText": [Function],
  "getAllByDisplayValue": [Function],
  "getAllByLabelText": [Function],
  "getAllByPlaceholderText": [Function],
  "getAllByRole": [Function],
  "getAllByTestId": [Function],
  "getAllByText": [Function],
  "getAllByTitle": [Function],
  "getByAltText": [Function],
  "getByDisplayValue": [Function],
  "getByLabelText": [Function],
  "getByPlaceholderText": [Function],
  "getByRole": [Function],
  "getByTestId": [Function],
  "getByText": [Function],
  "getByTitle": [Function],
  "queryAllByAltText": [Function],
  "queryAllByDisplayValue": [Function],
  "queryAllByLabelText": [Function],
  "queryAllByPlaceholderText": [Function],
  "queryAllByRole": [Function],
  "queryAllByTestId": [Function],
  "queryAllByText": [Function],
  "queryAllByTitle": [Function],
  "queryByAltText": [Function],
  "queryByDisplayValue": [Function],
  "queryByLabelText": [Function],
  "queryByPlaceholderText": [Function],
  "queryByRole": [Function],
  "queryByTestId": [Function],
  "queryByText": [Function],
  "queryByTitle": [Function],
  "rerender": [Function],
  "unmount": [Function],
}
`;
